2016-10-24 15:06:02,425 - 
Model SWISSPROT
2016-10-24 15:06:04,830 - MCC = 0.9349 acc = 0.9424 precision = 0.9496 recall = 0.9424 
2016-10-24 15:06:06,927 - MCC = 0.9458 acc = 0.9529 precision = 0.9575 recall = 0.9529 
2016-10-24 15:06:09,044 - MCC = 0.9594 acc = 0.9634 precision = 0.9671 recall = 0.9634 
2016-10-24 15:06:11,026 - MCC = 0.9527 acc = 0.9581 precision = 0.9603 recall = 0.9581 
2016-10-24 15:06:13,183 - MCC = 0.9465 acc = 0.9526 precision = 0.9572 recall = 0.9526 
2016-10-24 15:06:15,501 - MCC = 0.9475 acc = 0.9529 precision = 0.9558 recall = 0.9529 
2016-10-24 15:06:17,491 - MCC = 0.9524 acc = 0.9581 precision = 0.9604 recall = 0.9581 
2016-10-24 15:06:19,766 - MCC = 0.9404 acc = 0.9476 precision = 0.9502 recall = 0.9476 
2016-10-24 15:06:22,233 - MCC = 0.9467 acc = 0.9529 precision = 0.9531 recall = 0.9529 
2016-10-24 15:06:24,726 - MCC = 0.9576 acc = 0.9632 precision = 0.9640 recall = 0.9632 
2016-10-24 15:06:27,009 - MCC = 0.8309 acc = 0.8482 precision = 0.8378 recall = 0.8482 
