1.5506933546096404	-4.6033065536330247
29.061204775452644	-4.6447258468522286
6.1350581923477625	28.402770752465653
16.173838367497797	-7.0647531835071602
-10.846991005381259	7.8546590766808801
-17.575364472048367	19.213745302673249
-5.4242314126593829	22.674598440786617
7.1408114985659408	14.214654370562968
-2.2754558739859534	9.6483609701939486
-6.3176578171820896	-4.6927423862759605
17.095090264560231	18.547073631491411
-3.8649735982291791	-20.483347837335828
-28.655880550934249	12.607845247548926
5.0474187828848596	-24.575834167024325
-21.31067856262511	2.8073376971227972
19.281457259074354	-21.531692119188413
11.989374710549669	-18.255820611678988
-15.143541018548261	-8.2586894817081884
-24.057927850139656	-18.168288881026616
-3.8097993746608649	-20.495683667849985
-3.7383947128867141	-20.448721566473189
-3.6043142477743992	-20.329540616995306
-2.2018679522891533	9.4991613391052478
-18.046956578177188	0.77239594599970784
20.087711664823107	5.7261760495460807
-15.137753688492131	-7.6553676752848165
7.0141853789312494	14.212422834136591
21.308133309379702	-17.600576291531205
-4.3806097967024265	21.628710455524519
1.8395717230834188	-4.6167890113891401
-9.0376192201926582	17.156074682297323
5.485110757745141	25.462677184639496
1.8113000315912486	-4.6037731693309132
17.494420439536821	17.834048026674406
-3.8186445252287591	-20.495160644626779
-17.590380078375347	-10.029759548201898
26.110815419532202	-5.6569806010179464
-5.6815725840985492	6.0906017996358495
-7.6883282048575747	-11.727335156525408
20.324690216999112	4.3602002868557266
3.3074892891955532	1.6339594437304088
18.278520870171914	5.4866850053921743
19.819147943107676	-21.76729669776223
7.0458161383789086	-23.018366066281352
28.08761181604336	-5.0959086860234972
14.287878896773588	11.378135923983924
-19.537367880739289	3.4507000504991825
-19.321698761589911	-11.34823455981774
6.9808248446504164	-23.081760010105903
-17.403447123896218	19.857749035537189
-18.485956539555161	-10.705965126022061
26.380474358336006	-5.5352400186947799
20.499447632976938	6.3577338962034462
6.1568025207142743	28.066798934643479
5.3986044323290763	-6.9296916555628219
4.7204361811365079	-23.88815030868971
20.302430279189227	-21.292747219585543
-6.1385494732270303	-4.7499827607164757
-6.7457833640274592	-5.735041682325968
-19.449183953816011	-11.461915390195827
-3.6152543655262872	-20.328730731041624
-5.6021787325419048	22.410755005824733
-4.9553517488975984	22.67079358068705
-23.263569172822294	-13.19405406658923
-5.0558446336713745	24.546611342517572
29.029545629501659	-4.4784045914164814
-23.384554056713743	-17.022004982785305
8.4333638454277366	-0.19592685502923982
16.26718969597519	4.6996529186543503
15.978548266041674	-7.1750112311933805
-17.764567291643285	-10.204472983293419
-1.7010143377254141	8.8390207590705394
-1.9599142671289072	9.0699302628670679
-6.6988369656344142	-14.511244168861223
7.7571852762426357	-21.234934675814372
18.349225260479017	5.4652070542106239
18.449173045980011	-20.09859526242181
15.855545434021211	17.26731461932382
-6.7332557917187064	-4.8225693223162267
17.355271491227601	17.836809967099459
-17.977372194729941	-1.6275200236627603
-3.0815174220063293	-12.605045977988629
20.218262000624627	-21.353746269279828
-9.458866727763553	18.515208068162604
18.87405977068703	-20.966228606585869
-7.4343545669724556	21.703621429491758
13.131725584415461	-6.6737972376131811
-20.557739610520255	2.1937937084093546
-17.275219983874639	-8.8601731771070114
-23.474238172548553	2.4044625745427486
13.54045837378578	-19.74756973638663
8.4123826169556821	-0.19984098338532394
-29.194306933036707	12.543808601552744
-8.0995546126756608	7.0653043455022377
6.4692411770695584	-12.187063786944918
-9.4850432323667331	-13.450326601292717
-16.993363309205392	19.744991789616499
4.5042482704483016	-10.715575930934337
15.612162201795051	-6.6658571292250128
3.3075892003198839	1.6189637061777646
-22.978532323354958	0.89024254845240425
14.748135091270882	14.521043118330654
-6.9000871995742381	-7.7699816199027092
-22.494439627006749	0.87397038984711661
29.04124274590114	-4.5040705054291639
-29.021025864102977	11.775680752571432
5.515490250310437	28.41003372970248
7.5224932257311039	-10.76675184538899
-5.2862013627509219	23.450865675262524
11.385781672467322	17.683745980377577
5.5858679513173657	28.288417974012315
-7.4592906187240917	21.673208393106389
9.6520612838887914	14.752034582770683
6.6289890187612768	27.405124294523954
-28.865105174177774	13.654435571777668
7.1594440665324885	14.561566225034191
6.1791172999216908	12.722176820530096
-28.347456755198419	12.606180038033337
26.653288797532863	-5.9218821753051261
18.101834717666556	5.5149080250806941
16.179482369442461	-6.2955520568224674
-18.326092181327333	-10.369601595269673
6.4609290336006326	-20.234288461975467
-6.8538578221357511	-4.5206387724310204
28.57317152807898	-4.6971430996504946
-5.1719990394282407	23.133273147335313
-22.571621754344125	-16.278382398631674
8.4628515496556549	-0.18326285391632438
5.0024940231426696	-24.624200013732466
-6.8323724640661476	-12.747129324900474
26.860671068745653	-5.1913328704166455
-23.644478592620825	-13.694378072994807
-10.724152174314536	19.917014658642611
5.75724210871478	-6.8832655498748876
-19.826545628505272	-11.774643576819418
-22.669177369768104	-16.504114856703438
15.646840933421828	3.4575946833619389
12.305367445409034	13.257591070181556
20.290319697418958	4.3605407320014411
13.849490809320127	17.019277689086802
-6.4189534665652781	23.10225076947609
14.4624996401965	1.1116545363836248
-28.27560416555616	11.802072609086578
-8.972895963589707	-13.69779665902003
-28.808246043012641	12.074411920262049
2.2546483777670003	0.90852215585325335
5.8370886817684235	-9.9398889231130472
-19.57408437805973	-11.566142776315075
-6.380386155713639	-4.4925780994108298
26.65810488364016	-5.9212878532717639
-5.2308177153634432	-17.429140191964507
-5.1452963685689364	22.635571973334773
19.996331695833369	4.4280454081948539
14.214087836658996	13.547903351664528
-21.03365562517541	2.2798575571821087
-23.582052799181344	2.2748632817778058
8.6412054301286751	-21.105231450175975
-2.2867304740053744	9.6157865549903736
0.321218099251106	-19.459906973789373
18.864749466577489	-19.300309821406341
11.721794635358041	15.288693492485862
-20.166507237296983	-0.29458843609739926
3.6079768018431393	-0.15168260200924757
18.031709229769607	-19.831903090065051
-5.9560122372977968	23.117652415944519
-4.4127236813579929	6.8444955393161786
19.280895412123396	-21.498450274303508
-16.27341001629021	19.367873888083359
3.3265129237643065	1.6230650035415244
12.086606368000774	15.123227306504674
5.6587166675526754	-21.444988790093962
5.985359760266288	28.174800125434388
-22.3911534867858	0.53271364538935539
6.6561313243659317	-22.858945002265024
7.8612590620858542	-9.8833529925947037
-11.409896945365583	7.5856286196960747
-2.3793968379089252	9.5458635957476048
-11.169181908987134	7.5327581473890879
19.03858282303483	-19.888029264930356
11.507616679267937	17.512558381052635
-2.1485775426248166	-17.689652264062236
16.296416273852195	4.9765857072528412
20.575081687297281	6.4624966939100261
-9.1375438822894033	16.872136466995816
6.0743677275776529	-8.3821319854866942
-6.3679163790200395	-14.138583311911905
3.3208043501758775	1.6400556176065566
-23.456800844751932	-17.094573967695048
9.7148524704425974	-5.8766212077995501
3.3093060700898831	1.6525014227840717
6.13343142406538	-5.9040364329086925
-17.035477590049311	19.652802604079671
-5.0372949156881948	23.358635263610203
15.631467489983381	-6.6427856183033311
3.382996574590095	1.6632926522120861
-11.084927917169795	7.3950042003235819
-21.034603650038822	2.2355824337582821
16.22642750862531	-6.4949918163033429
16.417079428912906	17.819811046340366
-28.377898322514781	12.47927208185939
9.2276759500180319	-0.4741238949455614
-17.485436498854416	19.881260097594769
5.5114325402753037	28.788362513097763
16.982145242845068	18.467775354195776
-28.541019488962672	12.664561472259596
5.4203244277317424	25.81828332019046
12.892279573936866	-5.634857932110414
-5.502031601746233	17.622300608682355
-6.6921264577872099	-14.563020135986442
-18.345742196672962	-10.427821200859626
5.6464849354119586	-10.753497940361997
9.7102122124818564	14.544867527082149
8.2876336755511417	-11.898605431754994
-5.2210269822518702	-17.421647911908821
-17.757602276853895	2.986531781986657
18.983261281352153	-19.63048995443609
20.314481542052739	4.4000687103544101
21.871779621653786	-18.396591520193855
15.510309317463607	2.4556824598069453
-9.6600058152558272	-13.427905647898166
-17.602366731887184	-10.186168166830591
-0.29548650493695433	-20.049576856612095
-23.040760148699466	0.8574607977971852
-17.202118019254577	-1.6199423890079558
-6.3770747699723245	22.478038223557025
19.255650848472996	-19.132027979914728
-6.5383655931676365	-13.371889980729319
-2.2012817513896601	9.497238085525856
3.3234014492009054	1.6614057538413196
12.122003750082703	15.139543328101764
-6.2425040781441119	-4.7949302755719465
-6.0157831451333887	23.196647138060943
16.040351959869884	-20.635991142996922
-5.3081816789299108	22.71178824741758
-7.3191903767360698	21.812706593458959
11.247959109369035	16.997406090600702
-29.200535084903283	12.571126745573311
7.7272336970485851	-11.19065748987955
19.259453705174	-21.65714972715244
-6.8438946319755489	21.419646141618202
6.3103142868996258	26.118980509018332
-7.4383864046705517	-13.884377235930458
15.676799803785366	3.396589942593006
-3.4934046737375044	9.3599345189187417
18.05320487398183	-19.7490625646866
-6.5392386742351949	-5.0701173253878853
15.678075525629586	3.4533583176908733
-4.3986748961993332	5.5010073140903097
19.92503998080775	4.382611402989931
-3.4436341859727988	8.8225070927240683
7.004323886065758	-9.9051292771062656
-19.860167732096812	1.1446722342178808
5.8220104124162422	-12.882291510266537
15.958346290504949	-7.1412236907850142
6.5286804437392263	-23.754440692829721
-9.0027158040572157	6.7424950365304497
21.966706813156243	-19.093034722355942
-16.910452801462167	19.347214690037024
-2.0608834065979478	9.9388299897641286
21.867950750140082	-18.406151946039646
13.947442982378998	15.691879048696581
6.8948895592661916	-22.828336434703814
-7.5778730515697434	-4.8085735778202823
18.276564825506266	-19.918116596802676
15.865388173602049	-6.5031037502177309
4.9750174957690767	-24.674093252042706
5.4053861781377401	26.137512998106043
15.120066584550575	17.038000541080631
-4.5710313972847754	5.7155046706551271
25.318935648268329	-6.3708811967695604
18.133988186192788	-19.533962371503648
15.736525605351712	3.7030898192763653
-17.810324093105979	19.359411300889406
4.7909238412732327	-23.898340152461465
-7.4471439364421999	6.6105139336747429
-5.5837265989389753	4.9014049288195913
4.822576500226706	-23.867488119568204
8.3102925332934383	-13.139628443707728
-23.319043007892219	-13.235207096308438
-17.184778509089902	20.430127954113768
20.503470825748423	6.6739769948229934
7.8764577741546509	14.043155385131941
-1.9297230610905749	-16.72162383870436
-4.506416273819065	6.7684030871875933
3.6493090658780183	-0.16396579443403878
-10.579273815084841	19.848036257550646
-19.486142691082328	-0.017169226614237788
9.9809898282671856	15.078192645227574
4.7285536646754016	1.3487194851871367
5.9602070086396512	-10.609455965598823
-6.8642242922797969	21.414422854041369
16.133264548092736	-7.0378105719247372
-0.21688330671226802	-18.819653793330506
-6.9115184187972156	-6.2479338600729086
19.846315256286836	-21.759537759247976
-8.5709911971310948	-13.967704392458552
-19.989967572948203	3.8414620009215561
28.935459204280708	-3.7794267513453721
9.3598117341302931	-8.1088790062422476
-22.090178184505302	-15.613009818891946
18.928569335701621	-19.365627945269306
-6.16562226102607	-15.409362392814698
-10.531341243446626	18.400882277182074
-3.9469013907510333	7.9357280930668166
17.417012259169372	17.852399710016837
-11.441809933379112	7.6738200308450848
6.7258575065494668	-24.126112663757919
19.036033479626109	-19.880064846556891
-6.6932533882323773	-14.561777481951552
-22.704734911638841	-16.427924357068303
-19.832853697533949	-0.22207903522978648
-6.0934453306654657	-15.276442088743302
20.325840835569831	4.3335740695150813
-4.1493141722278954	6.9404036906257449
-17.631802704447683	19.757476891399076
7.6536933975435959	14.424476119654013
-1.3630824545106419	8.6112134210424465
8.2194715702260748	-10.904571698366958
21.34109924570997	-18.390049705180793
-8.0074465057826973	21.67775609731547
0.3755955309067327	-19.110369056248111
-2.3239218279736598	9.450909036083317
21.579459307128648	-17.900491638099155
6.5632198196342282	27.432590226604781
-17.337281376780403	-9.0046810993889022
-5.5591101940834253	22.496770802549854
-6.5450529376356483	-13.109739975864283
20.260153482984435	-21.288365828944734
11.344742983531674	17.59611602103843
14.621353597884761	-7.9248098319860354
-7.5287472202424803	6.6331519935056855
7.4073956948424389	14.348241976220741
-23.611596381836371	-13.648244904700615
6.8780631629337954	14.607584773897342
-18.333906665657349	-10.429268258844658
-6.8520812086506817	-10.954302196915148
-9.6813243768005108	-13.416391014810779
20.668483037649068	7.2808452975469846
-3.1308709231036747	8.5113114752210457
-17.531779658994296	19.116609269232164
-23.328049873252706	-13.274277072125688
14.180050958299045	15.74926246674791
13.959813584188478	15.672925038544694
-29.112648680703824	12.044807316983322
-9.976863225468481	8.020039030985453
-7.9893415579531046	-14.543940892024095
28.473411168739755	-4.7715007886319798
29.065522758323446	-4.6502805483053775
18.203730832535772	-20.176626417584327
8.4465878415600368	0.065059147502829928
-6.9098343893858418	-7.5209847058141763
-21.013358688678597	2.3119359485262665
-4.5566870474259966	6.6699577999254052
-10.744470423732166	19.003510265653375
16.301980848338363	-19.391899936509258
-23.219469590572192	2.2637510164697625
-22.701524559601872	-16.490722745238632
6.7502242707786726	-24.083068066880045
-9.6339109657277735	20.03126776377561
-7.3329492957323241	21.782571059698537
-22.027522888987427	-15.780856161883939
-19.799619989010939	3.6256701958152537
16.152175118527897	-7.0477971662806116
16.976212841122436	2.529064361758818
5.7071057424645932	-4.9970398634144786
-5.7541515572966784	-17.439079657710533
-18.193868944388885	-10.631354312000083
-6.7171006909212849	5.9977183747761549
5.8564393231365646	-13.259262807069467
-22.630078561457822	1.3077591461250895
-4.4022746774183084	5.5449309783004379
19.642360967049225	-18.087542640831472
-23.252780899887217	-13.178035931700492
-3.469659265606214	9.3995227528847973
-10.647315760626965	18.06679639856333
-29.110216340664874	12.544901231381072
12.101243450060002	-20.797117471443936
-15.11669658470492	-6.4524474208492641
11.681769023673548	15.37039151056085
-3.6174285759991003	-20.332040016541178
9.1284267332781948	-3.165710114708038
6.8240089916107589	-23.984033055885746
15.663009797388838	-6.0544884688020151
29.411364956969759	-3.7326354691506571
-5.5847923137703308	-16.830140834313813
5.1268430549734179	-5.9963089655688648
-10.193482920991352	19.874777920535816
1.8934770549733444	-4.8605934289862303
-23.670458439208907	-13.66046867638121
29.338363407149473	-3.327269901486642
-17.590144774552368	-10.186432236948981
-23.665275958843583	-13.700873202326084
13.929856212232144	15.576774788005791
6.4369928055877894	-22.834625130449172
18.263290374668294	-20.159302698480605
-17.588209864866744	-0.31199797178402022
6.3489793263035956	-19.423005462183642
-21.14420041382424	2.8983810734189195
-17.702238706513167	19.338326352324916
14.507878316538882	16.321440362441283
9.900797353294287	-7.3383793255537828
7.0274151618856058	-23.006755597168581
-6.9377958415515435	-6.8957273857498054
27.225427255418253	-5.4002077441344793
15.35612714425139	2.698216480240538
4.7441055372863268	-23.907475842457409
-18.167441835679288	19.845842357518027
14.76542259296099	-7.8620976484211216
-16.421074662659002	20.343126051734
-23.278034959005286	-13.186361702790267
19.308224606878504	5.8258348869380479
19.922474713639087	4.3906001524485463
6.373214666915616	-23.42143358356747
15.595908638663381	-5.9380429804738268
-5.7540151460544999	-17.442086715901787
6.2128940342678165	12.768954745546546
17.221623078341828	18.554094899324902
-4.0788835313160439	-19.383486004739428
16.854163092211156	2.4091843773045958
-17.878347311483566	2.0617383967290115
11.733406771962645	15.287747591695881
-18.269219425864222	-10.383181290592972
6.411170163893912	-23.387899963800322
2.924023803082628	-4.7124916949082625
-17.951045295898535	-1.6494825294963011
12.453833464309067	15.947384661107016
7.3457622713053361	-10.417253772143901
10.382244417276802	15.148103496870942
-9.4748464558467678	17.717984534854537
-17.961825880692334	18.338293471754085
5.7083891562003304	-6.964497041914
6.3019101183094861	28.84801673859716
5.7847592551116076	-2.6823691888044134
-23.648374803339539	-13.669481030212301
14.435981343869946	2.0396238523629382
-10.867083918134602	7.3023052733876854
16.234994396675816	4.7876631001770047
-20.963572548414398	-0.42440042973322495
19.04786354633811	5.7246106615697725
20.341545993246729	-21.239666307270429
5.2780542567825739	-8.611493722546971
5.1486431852025065	-8.597508881159948
-28.308272757977253	11.977174627416765
-17.717918015756815	19.480448973893193
25.782526118620805	-5.469506625376976
-29.415292721767528	12.312471255403496
5.4143476960713492	-21.031484172370014
-0.94187496542216698	8.2026299416123454
4.9849579958587578	-12.10069066583775
8.7737602567462094	-7.4659822897245345
-6.562287789283566	6.448654834435338
5.8218619418494777	-20.778739114476046
-17.109753951779499	19.08876961053193
-11.155156123356958	7.3067142981416069
-17.118008604963961	19.182992574463587
-9.0784673631786319	-13.684386496554275
-5.2542990053171144	5.2768793138732022
-19.676266679555706	-0.12902963642321594
-17.397746306320592	20.852826287571183
6.3707161068828908	-23.416672654050434
20.337342739673449	-21.245406877865062
11.589153791152274	15.121544403867489
11.665190270948271	15.301432404484883
-19.834787257859244	3.5672753627904346
16.215131745253629	4.6713442357129589
-28.70121180590958	12.360570823377206
5.5188938452329612	-11.982819312773653
-10.814975761990993	7.8934869524915801
-3.8497576167657925	-20.504466584036042
-29.172498675696009	12.129284419883879
-4.6145236929415852	6.685779948011378
-6.5713248415556054	-14.868150004044992
18.147695951713647	-19.51624172945537
-28.451153034858013	11.808956827574896
-29.477734406267686	13.456032947476883
2.5148401925096509	1.1942629084866239
25.657389030246687	-5.6019921478740224
-4.7765204120148228	-17.959404701835545
-23.068971571422587	0.92734500306659118
11.244424578736016	17.943942803039821
-7.7623093842230926	21.249575717346168
-22.068612360619841	3.477857979631275
-19.747236321691876	3.6099130716244825
-28.74166588334603	12.084627113978899
-17.767459374246432	2.1327297200231712
-4.7951387420543687	5.4566144626145547
-17.845986653648147	19.455741908368818
5.7902977898486139	-2.76487256946037
8.3420440802125917	-0.17924404050290804
-19.361805592734058	0.059553305882199412
-7.8945946610224258	6.2169041415903745
8.3117780880583592	-11.630222777233984
5.5884943517816428	-9.3168582668697262
-5.9008291799083503	23.575889720335304
17.259098866326713	18.51376973190569
-22.648713801907306	1.1799473341271456
-6.2622380672904034	-11.775163010105286
-11.117146001974435	6.4572962124009603
6.4528105434464864	28.521104932747864
-4.102528036053223	-13.084250097590068
-23.47297989918852	2.4045420413982144
28.095063133915083	-4.9392619486390492
15.126596084701054	-6.3013010419622102
8.426745780780978	-0.22406915600964783
29.019973515228777	-4.4519077051849996
-5.380916876918441	23.392040379453288
7.2381162191324524	-23.111788314347919
-19.632866410961821	-11.623699595604382
12.320255332160396	13.206667708649553
6.4467543665732672	27.570507924763998
9.8653501608388314	15.040869470568271
-9.5568356243514891	-13.454853539496135
-21.020610176037682	2.3053976013529689
6.5412108099259427	27.36100354807046
9.2502972439113176	-9.6417149942253566
-17.439850018749063	2.9686143910106098
-10.065508644954409	-13.285720021204339
1.6201942851965025	-4.6381029012514192
13.935771736842808	-5.5188005448141642
-28.069026494742833	12.496428475028493
-3.7486769996249345	-20.401332903281471
3.3129265541583655	1.6294163965179886
6.4197128264444974	-9.2134062977885769
28.035780642194563	-4.3017776502063274
7.3907834296576995	14.380627850589562
-22.100092514973479	-15.687870263808227
-22.063864418700206	-15.663353260636512
-17.449094749775856	19.105843056979054
18.462350996798616	-19.919582447331273
-10.80783789724078	7.8709486687498442
20.422723080523319	6.1186840698874363
8.4297897605783785	-0.21054420164608162
5.7509569381296339	26.659768870614066
-4.4588386010381473	5.6968922187083484
-3.3412514283574986	-12.64007906093299
7.8704709937935187	28.674904560878048
4.7241331900889731	-10.672784401562136
6.2157426660173112	-6.2906611565457737
4.6417735453229882	-10.84343898293158
19.171559160590427	5.7916568566568545
-19.992392728691307	-11.910441714628568
-23.642640989778727	-13.693055370761824
-4.751651819690097	18.199146418224299
3.4088860617729497	1.7437789861998667
-23.27450912780624	-13.232123131262425
-19.079070369080565	1.1617089504932381
6.9414517421026067	28.287800602104895
-18.283594567045132	-10.422889321861696
17.341417028881846	18.576905001614655
-28.37294628781045	12.682688013047015
3.4596515387709346	-16.040298626708179
-2.0817221385967657	9.0673247564853785
-6.8151455118375956	-4.4911211936456956
-22.096048674201029	-15.703389675647239
4.1155764046606373	-10.736988836021169
1.5027668077333158	-19.469686260172818
-10.418009461951328	18.484125291709653
-9.7831784125781827	18.610696693021268
-9.518502761785669	-13.454107588290933
-22.741929446751325	-16.354278310478062
8.1505339070644069	-8.3896360261406642
4.5775179030288635	-21.085088995569286
-7.3813108596662751	21.071760265240368
27.286056487945448	-5.4318926678646484
5.5643184433758668	28.332098887881447
5.7360005540608006	26.681752011555862
-22.734376995228477	-16.359436232817473
-19.687262453607488	-11.652241736312867
1.6649457395305445	-19.612623268561112
14.172418946034322	-5.7808500353984966
28.052268957449105	-4.9705092995350633
-8.9226954788731074	16.39054190545394
-22.704649636403083	1.2454149037654376
4.7697328702315769	-15.537321488158879
15.753316350524704	3.8061628633141762
7.9016964660399491	13.914630698937241
7.4089483709239001	13.780862524618122
-6.2408957729860646	23.79244432114092
-5.0739320847333405	22.711761328232992
-4.6887660783412075	17.692412340699782
-9.8273669985140106	7.170804310443823
-5.2178532654160295	5.2808743768349773
28.945313433141653	-4.6432784393056261
-22.945909462062712	0.86515992667683927
-10.865485860915443	7.8795584847535736
-6.0529119749908098	23.175288360590176
8.0579629127555989	-8.9693671822155672
6.754313666742898	-22.850840225205278
29.136797376319414	-4.6933999963600872
-22.827301464660025	1.2086246763219377
-5.5135562484978706	22.406416751603729
15.877961526073237	-6.3800622350007981
-22.937327025452468	0.8639472518589455
-9.0790537814099643	-13.683574592431235
6.8873926344116523	-21.924792779141114
-7.0713328587308881	-11.024384061773764
3.8745370948096967	-14.64589299221174
6.5120441160823939	28.23080109258823
14.653143837570374	14.253832415457133
-5.3403688902294757	22.680373366330056
15.080808450018161	-6.408152313613857
-21.158173927446025	2.8784097823856061
-21.037298042571823	2.2575470757630569
6.1656374833471146	13.670617638062545
5.5730603709047157	-20.342106221356858
19.831130133027624	4.7450652484190687
13.324647257875172	-19.42416275091534
-16.93820516863881	19.268460279919566
-5.2893061327186137	22.124103655132011
7.6568198653523938	14.575388711881775
-23.452905178997746	-17.146370185772632
-7.8213624136906796	-6.401080041651567
6.5146791705965477	-24.001194936353993
6.7616139723264563	28.425623316922042
16.982616177472206	2.5058740137438771
9.2201160522702192	-9.5733053075445067
-4.8341334988058104	23.239998289947444
9.1946662984155285	-9.6691101716537418
27.277673124306364	-5.434624091289054
-6.4800953055552863	-5.0803741978928363
7.1123049208385716	14.222346589345589
21.550152098665826	-17.9637927915186
-10.935351586827871	8.0273804899632424
26.620844767775981	-5.5024071948130073
-0.59196201444573593	7.955193192564745
7.8600717224186383	29.00700754552609
-22.718063817636629	-16.365346562984509
-10.833297901705052	7.8954523464259685
5.5119068171846717	-5.7215764174501249
-23.027791212561166	2.4393692018760564
-4.7872256655240122	-12.697325298670799
14.834007124899887	1.6457546737303772
5.54947520833404	25.601737203810092
5.0787581513913382	-22.600624378761871
5.7378218999103083	26.675474120611849
7.7575770116472249	14.730436481314314
-5.3953948685407829	-17.831410827957551
13.003462748359263	-19.660503192511968
-28.328946780621795	12.65891587154057
-19.50934469778511	-0.061337847907998483
15.810708281300283	0.9245818871181144
8.7013409886904292	1.2260513294929736
8.3052799396218084	-0.17983602530919338
3.9665690812655581	-15.622434414938771
-10.5409311925256	18.325342538631432
19.288155605485507	-21.60408792268181
-3.1948207009248319	8.8454757346103552
-6.4819837323552409	-13.190196460238509
-3.8914632567067424	8.1161221452252388
-10.949702902603098	7.3485407298291143
-2.9720862686847043	8.8329693213492444
-6.5326780099537771	-4.5116897524399073
9.2601839729912836	-9.4788525489103588
-7.4985366952549803	-4.7387756070124034
17.284778167397899	18.787472302621065
-23.277154031142036	-16.908638268173871
-29.359623955418822	13.472746500177673
6.4204190012018101	-23.35083047860989
11.747196713098996	15.290245946346488
5.6384809935348343	-0.037790778880464948
-6.6396006383603083	-13.99302483596829
5.0700617631000684	-10.836883666455313
15.932567876191774	-6.3666765809725137
4.9525606916270268	-24.229560320345239
-21.05162014940958	2.4142040214288354
17.399060172331794	17.827736141771556
16.305526637447677	4.9452119385123972
29.389634660129655	-3.7795768775683469
-27.978148904870157	12.129941301435869
15.40646521633801	17.802070413638013
-9.4952089497313814	-13.45416842524712
21.847667527346982	-19.190272136492705
5.9489126276610298	-5.7151181567897371
-7.3089976836760826	21.799830373007602
11.158919336722796	15.528425801656198
8.4521172672391884	-0.19634267272456846
-21.753962690442179	-0.33066936426879201
-17.553578245112995	-10.143015708450756
16.414056316659458	5.2900421487983396
6.5188009263589626	-7.9329469865919808
-10.410482916793216	7.3714860646563771
-3.9852448701057823	17.360100172714251
-8.2231501973371426	7.1565144428712557
17.332895785179286	18.53217778634588
15.968814764883806	-6.3800946446614883
-17.133976641656446	19.805935766568204
-4.4590523602613823	5.6807659647201127
-23.458118247072825	2.5956815948259302
-29.093082645494103	12.511887970516909
6.4458569115515711	-0.59132035983300268
7.3876764145615343	-23.288161702604722
1.8319381728329163	-3.8540356242647187
3.3197694686366672	1.6316241522734216
20.498047229591364	-19.505222289327154
-28.446062228581468	11.760172071402081
16.009997271953143	-20.605552375057432
-9.7721663688321385	7.2566947286214987
6.8328431726099073	-23.900300497809774
19.096394187072093	-19.474033786778804
-22.088664895886968	3.748759014632812
6.8389432549464084	14.041701350516883
-23.039040352860397	0.96804732758093992
20.310042296019681	4.3177796005997742
-23.224834331761048	2.4912150784635045
-17.570182962797478	19.999917973263962
4.8090260037443633	-23.875335555727855
20.559783882781883	-19.394377810344054
-17.034305001807009	19.761016073231154
10.004309569215621	-7.4239093729355856
12.109968995329094	13.579380306062951
13.383812114843808	-5.5988463826600396
19.027264267385622	-19.80854324215527
5.5960473840851481	-7.1616945938811618
17.134232461290601	18.561753765990133
-5.5900673168398178	-17.142917309874935
-5.7163446502896615	-3.7945675604975579
27.787201184851913	-5.1242173681198135
-2.0267184534472462	10.216843114376426
6.5935252675494116	27.072670538278828
-5.9150886477239961	5.72846250076792
26.581589820045725	-5.9083328438750753
-6.026643377002066	-16.683817957569698
7.1246134500662732	14.476693693741208
-23.462474379440305	2.4034152818018426
-6.2187825171477513	-4.6492288270025082
-10.595159774229415	18.336233787114573
13.917088409406297	-9.3725600225465726
3.5141408787986808	1.9573602656957185
-10.916879305507207	7.9163649479899423
-4.8811250579516532	5.1484778144914474
-21.051257599787323	2.4127746111128574
5.5028772399156747	-8.1371590263208873
5.6687978833205106	26.677955783342274
-23.189583688182001	-16.558389720761625
-22.476018820421299	0.92578372310545343
16.151210197837749	17.646320765029689
-7.8368953649983863	-3.2027700449386436
20.397829947058177	4.4432608269608407
12.158305525554022	13.509081548475018
27.967107269997452	-5.0767143569522855
11.725436496798487	15.437523929100498
-7.6969937967481536	-3.7012631055008804
3.4123355971811624	1.7572681379354815
-18.729001867231482	1.2393191307487943
12.457070690182904	-19.183120621622809
13.305507302117086	13.038271514433642
7.2153224637867703	14.594839441939126
8.2258126661833622	-8.6619830026713025
7.2738646717713085	13.83999679349664
29.365889176252136	-3.2804616601698671
18.634817689123643	-19.063219832028775
9.606479170787269	14.711519653448104
-29.338910559508342	13.429881932192725
8.0606434382292083	-21.250851136141588
15.622095907225971	-7.1169505499064298
5.4473890997253305	28.622504777546652
-6.8423971355079356	-6.2646835181817364
-6.2273038340215017	-15.37428187223494
-6.7840994443792173	-12.995867644223974
14.831656222581419	16.822875645231669
7.5316739850255301	13.882560165667401
-19.913975894744443	-0.29099865851681028
6.4528038374493573	28.77397798406416
16.079833040330776	-7.0718404158692278
16.83895767971153	18.395649480888181
-6.5387083019453671	-13.13179878232083
-6.7621399795761921	-6.1191046574770516
-17.823392221715924	19.52111463596599
6.0451409302426971	28.851968304082771
7.3773544688387975	14.74739299246316
7.8898003996225832	14.000382690815506
6.5717473749859217	-20.664490869148256
4.5343955228407529	-8.5700769747805641
-18.798706553524372	-1.5196822490561506
-9.4227407419354385	17.91441455285192
20.366749532201023	-21.24417117196613
-10.70633903753359	19.736748905892451
11.436136456214662	13.243525308565847
13.36098410838799	-5.5729962163528999
-5.5610084183691306	22.519177979890557
-4.1455176277833843	-19.218447038068618
-3.1660490299636308	8.8873000266447644
6.035855988556615	28.898156349389737
6.4176466509424754	14.798096227868164
6.7552699772232945	28.4477429989612
6.9091716140965866	-23.876392646550215
-5.4035437070250802	-17.833655632721829
-23.635246337173921	-13.675528243507721
-22.109642830415901	-15.708660953485401
-19.898073137244719	3.6757988131049264
14.013933087205075	15.766466577467375
-4.8343086942246858	-17.373440719891654
-20.922855944511909	2.1933982922703228
18.570454919150428	-18.958260939969907
19.06599795288064	-19.445830875466555
17.459496398084976	18.679197041432914
4.7457410220650615	-23.88195484277983
-17.982082708438	18.235368546115968
5.6953930989855639	-12.316657367456257
7.3705395560828082	13.860951915156656
-6.5463908026805306	-4.4320601869528113
-17.110099757601603	19.127859962785994
1.6258235236624603	-5.5727374059825712
-4.4071127010075628	5.7568683769470201
18.976247467048335	-19.623765740713548
-17.700125801345944	-10.281064628343312
-29.292618616004745	11.861339226041526
-28.580171055693771	13.089836149286601
15.808495432423268	1.7162176633581709
-9.6834230749704666	-13.425030930074756
-2.3213021582000062	9.4492504956728922
5.3335868532642072	27.594098873226624
4.0091950226493163	-10.992805660571893
15.224575281635316	-19.549813582988847
-22.583055174615904	1.0497596956294704
6.5463240880017501	-23.40013167144938
8.3695544418834391	14.439667314873589
-22.091802671933294	-15.609292931064097
-10.571973381189677	19.896863908298155
7.3800528020956833	13.786626362493868
-5.6376995387307813	23.39728767322805
-22.921202010202197	-16.173048735350779
17.956787740242337	5.5617870963693381
29.063496761258964	-4.6467596068195656
7.4935290998576072	14.993270027137209
-10.401154440395025	6.7595369194943009
-18.894605281722708	1.1491991074957877
-5.0524127291333079	22.601741866709119
-9.071971824699574	16.475427034778843
6.414310393941232	-9.1612600156466542
-15.132938466047158	-7.2019508857596355
-6.3607359764000249	-4.7649041789509194
9.2029158536593627	-9.6095939906460845
7.1969875164124932	-23.831411438260606
-19.774527297839889	-1.0539460187770788
-6.8631521141165761	-6.148214227301688
-17.18215736735268	19.587123232129052
15.05805249444812	2.1865236451400381
8.8905000877412093	-8.3287015702505354
7.648229674599464	-8.8657922650837637
4.5308847445199047	-11.079020227119651
14.947290956436861	-19.48236837600361
-6.9556753530278881	-12.766950969509423
-19.78867408153581	-11.759083124644679
5.5360537615503906	27.542540741112443
9.2559557954764244	-9.8159947178640863
15.490699658074446	2.9981423721666278
-6.4086000790089912	22.488964980007207
-22.399265285702342	0.53036969427502911
17.051410412429622	2.5763333517645712
-4.1694114498197434	-19.18016623289439
14.1487579404158	14.188740311488077
15.237435057087769	-5.8889786202524093
-18.461233125183437	0.43510206418409292
19.993983081023192	4.4263529344597696
20.314097822897388	-21.261482883547515
-5.2543950065840646	-17.377179676581346
-5.5026569318801508	6.4730452622840566
-7.2700962572075714	-5.2725769937829385
-6.8828679131877637	-6.788411293338056
17.122160204080288	18.54040379547834
-17.603156151963542	-10.081285344438612
-19.697236968431156	-11.684427561277563
-8.2513606209065173	-4.7131161798525349
20.372882008630899	-21.268736474046573
-23.935832696858114	-17.926215838814404
20.302211580786626	4.2929892246438
-10.480047503567871	18.158732029919275
-5.3823026809345373	5.153578796949926
-23.059126051852246	1.1549132264861175
21.968451512493527	-20.461822328818176
6.4356632424436029	28.737093257736131
-1.8996584392821461	-18.982348538898833
-6.27683884434449	-4.7946885688681817
17.209560406809633	18.472533152039333
-3.9997204697324316	-12.624645445913595
17.499957334134944	17.881388026227935
-9.7361598964666403	7.1273332519031314
6.0255796898745677	28.804875031982881
-7.2676102795875837	-5.5647639746243183
-6.3697581662073297	-5.0556496924397409
15.863252931293591	-7.156944441532465
-9.8057900188233837	7.1636384209286668
18.241574664260515	-20.098774667410297
13.603727352539526	-6.685895565247157
-23.193953994451263	-16.531228339540153
8.0295746503281631	-3.3253485186999909
7.3746980665406081	26.985442872669193
-23.208414589085546	2.4810376822441187
28.772051464314369	-4.5319885386412571
-5.6014471857908044	22.5491379400125
-23.196375349446729	-16.945770078148183
-4.0213818178836345	-12.63440898189684
9.2691008799240269	-9.4604643194318587
-19.221279446981196	-11.309143572956197
-28.492406103140492	13.392180987933223
5.0954918471587831	-21.077099398298923
25.322149839396118	-6.4226117590308558
16.413744047526006	5.40936109270742
-11.432791761768852	7.6912051672291186
26.612211787709793	-5.9039829717941963
5.4527879965021793	-10.947026625415923
11.778399732172568	16.891716600704559
-5.2080043904210713	-17.043940835110163
-5.8852287554181126	23.448672264535031
26.052509195448764	-5.8372807046605262
11.301825580350169	-16.686407983607292
-10.596964504838674	19.841949415956531
3.3172491127375094	1.6817550971255861
-2.2848807918604357	9.676020593611371
11.575036793139555	12.096850398009346
-2.367952414740313	9.5682180296171566
-6.7923548619963237	-4.9356843271708719
-28.720626920173977	11.272245727896271
3.9102940879999974	-15.388610532589283
6.4367031925922458	15.335704538223972
-10.801880591289072	7.876225777084799
14.372656285203949	-7.7905395148545287
9.3207858653263695	-9.4386056650080654
-17.696560592125053	-10.283715651090704
20.273582144499052	4.3730735447516373
-5.5335282008397986	5.8813292678709956
4.7249909645054586	-23.915074071946425
6.1516484252643613	28.109742499905867
26.608521338174455	-5.5006930187567153
14.475976131054416	-7.9000118104125594
-3.6243371699453801	-20.30799364851331
7.0180306292972903	-23.924575408395778
15.687222993240145	3.5872369088077747
6.101178558421851	28.541462210498679
25.00676698938285	-6.5369439962268352
9.909350734753529	-2.8727509046028041
17.56359453830758	3.0255423582853926
-5.5959137457777528	-17.141061871025418
21.796651559458493	-19.675181476491741
7.7950118811570528	-11.315398020532738
-9.7174103736805488	6.8990967301410064
-9.6335469661051256	18.225133320718236
19.844516908601513	4.4846753668175978
-11.454454211561721	8.0414079538070933
-19.659865317008322	-11.630660537568803
12.709958951584913	-19.762336733806062
7.0311548856676938	-23.016294200970176
18.536792242657146	-18.950077119000373
-22.131676439329251	4.1086233523749502
4.7296889688028578	-23.813033929426162
15.593301606203156	-6.4205844670240992
-23.414068559730083	-17.146831189459828
-8.9548202540853907	-13.606804896425395
7.1689187741324618	-20.353565417685694
-28.006639114446919	12.101054350971026
-23.450949013898835	2.6132799907976261
-23.324164905279872	-13.298233581528178
16.979504731040329	-19.483868604163661
