3.2180672726511386	20.976014710119269
-17.227489020192529	11.312929024630915
8.4902126101390145	-26.072104867232053
-5.0236024360427338	-23.644858319833808
-7.4969515382471412	-11.010951052802854
-22.671353889825006	-5.167717098484232
4.5738181021302822	1.1548790567663367
8.0201927513517148	16.165739208270363
1.280187599269464	-9.9935641694632888
17.358351547683018	20.266333944465543
-10.244690678851772	13.491944205046854
-5.7482423998013594	17.694449676305499
-20.016486497525467	-17.50839993813517
23.258630245221408	-5.4696268102134837
-2.4937865617997907	30.098112171751247
0.9701590717214964	-10.011746107204832
27.813399818505779	-3.3636608392365401
-0.51316644238836728	5.9686379423307319
8.1277553765290644	16.294834793951789
0.62305730796830727	32.359998615193241
8.6093240512506686	9.4578309321228478
2.8038356298278417	20.979378193790982
9.2715110277955315	8.6541963778484643
5.6269545376720806	-23.938841921310832
4.3609208099461751	20.975320958869286
-10.120298379079534	14.731923794797288
-25.674817454435363	5.7638575640608662
-16.179383485137233	6.4588125880853458
-0.92194305347897332	-12.974582712318469
-5.9720045643944824	1.9793807392115226
1.4878929929206812	9.8830703197252685
3.8115379045969169	-18.443080613003701
-1.5313163814496158	7.2140989245309068
-1.7426663560088909	30.288684330878617
-18.596371894889124	-17.763235085327203
-17.042782121756648	8.5183860251181738
3.2415567718240328	15.004536309270302
25.338308130120367	-6.2303259930030732
-26.235654627871416	7.3283175696390073
-18.501827377113923	-17.469840393574593
-22.159377205905951	-5.2360597478745152
-25.90556313451318	6.8339780888268544
-16.198549262781107	6.8177928693450403
2.1095639108642059	5.4280338982935961
8.4227140239453426	-25.185958037997011
4.4757921833821559	6.3060292958911406
-20.187471031312395	-16.249819884184681
-1.3256184675475711	31.051947501224358
17.340773426688372	20.549311328866398
15.975494974890189	19.511125422618296
-26.702418281998039	7.1416323192670053
4.2408455846510194	0.93004892715214871
4.5086630807358485	1.7834635504032224
15.49359283524317	-19.372414359529433
-15.61917420715637	-3.3068857384898553
-17.208761608140808	11.391237767060717
11.413841991232651	-14.529984590665011
2.4684817405802413	-23.065844708672905
15.317390520031157	11.068128772077758
-5.2079739737051494	-23.934678445428396
-25.962177377140698	5.8303672351795335
0.85136227718744828	-9.3435466330977501
0.86510577965846081	-9.8505713067011147
-8.1013652652239401	1.3260248318013643
-20.606622717661388	-19.849700443951573
0.0051916804188003596	6.4309020580592238
-0.031661819088008379	29.826526990228153
-9.4251584076917965	12.620128912269609
16.74366264491972	20.262832069834555
-10.204670130423446	14.673656004842011
20.366405439120424	-7.5593536734191709
15.1536699113294	2.6490347950414646
-1.6016348182559821	31.000101554015231
9.2920780915750463	11.59476580313375
-2.114936190879563	28.931633344153685
4.2897443416813221	-0.98028220342308392
-6.520964652750517	-25.480047954715872
23.236792357141656	-5.7691794764855331
-3.3544419241823378	-10.39908994184959
21.534754736868376	-5.2277209503973614
-23.321515899676605	-3.8003974458976173
2.4609119131920014	-23.039858017740034
-5.5494091892139252	18.021673477249266
-4.5836816663814108	-12.310309251133503
14.240872804457686	-5.6625090358465355
-7.2845544415257475	4.3811431226061099
-22.271540356527204	-5.7131244751046948
15.466967619478716	-1.3939668130600065
-4.0702826693188641	-23.687614565044985
3.8243812679790019	-18.437247874986294
22.765196089037651	-4.076031398189266
-7.1429575248897113	10.685019338210489
14.57390860209637	18.852379883394608
22.233891737531795	-3.7383193427922388
-17.216711851403545	11.396571697175631
-5.9709246199728065	16.826458870923457
9.2987380983378873	-26.42180340111403
17.741196115484879	-5.5834253054096017
5.6099119876016967	1.0115601388605584
-0.71961137409379083	16.858203199467741
9.2529191503213006	-26.234774581154408
4.4706298828635047	-0.96317463088165589
0.1488289299053257	14.382891658369632
6.7324728200996784	-24.221945681766758
-4.3826493122360173	16.600811577532916
8.1766051138801217	16.075345581157119
10.376299840893896	14.180607521565603
-5.4295979983094309	17.217573020647482
-16.058913697291452	7.2605049454953754
-1.6517924687228847	5.7525750647343017
-4.289980475969414	-24.307805982229361
-25.407651255238633	6.7790606558004871
-18.768819373460925	-20.235638244522345
16.746528949911443	19.538568924366658
-17.316454548385998	9.3832732529977765
5.2192629498098961	1.4458831182922556
10.508858761711071	-13.974951989390259
2.3823730267094585	-23.010139784402078
-19.961310799649223	-17.617705566692571
-8.6446831275830505	3.5211244093444849
-16.292966570494897	7.9861386448477871
14.819365489497024	-18.446483965258363
7.2021223548819648	6.4081475614852872
9.4860802458328077	11.271433224985199
-26.543370439798302	7.6898312059418261
10.695989748858201	-13.97002568980716
16.209174863867908	11.057294850859437
3.7186685621359663	15.525879500142056
1.5362690749362307	9.8721422340897025
5.724755796191678	15.037288997741786
5.8788427079249841	1.7078390806018673
-3.4068939694528764	1.5989651295110687
-6.4361620062554294	17.194281143984959
-7.3205622501499796	3.7851256171923469
-5.5769400869280208	17.037973566871589
4.2399758845754167	-17.483406258731911
16.948180158982556	-4.4103344343082718
-26.389277786483433	7.4672592622738474
17.077868027580823	20.618139469320219
-16.054144363211773	7.2604649690030927
-9.3789951218433085	-1.2068851645274077
4.6449126970054158	1.6587829686320046
2.1194918154760396	9.3890391525296746
-5.1175077382216783	9.0912968462640809
23.151999480655274	-6.7202755520775046
21.48553160009406	-5.0954386252369721
-20.616929621908408	-19.855009054255181
1.1877696202806474	-10.095927358424879
-17.193154705526126	-11.776620289328243
-0.92317842451793475	28.824465336744364
-3.0981470416653965	12.923157826775888
25.754178962014137	-3.8158894684987175
-24.694886062562318	5.0094961905856001
0.029203759081083917	29.976717445796407
5.4573629542004731	0.65132067228821278
-0.82063980965639938	-13.771942268080181
-2.4534012210319651	30.067325453296959
-21.531682314646606	-6.0260533269897261
3.8267847462117195	-18.454275243043675
-4.0442016910475669	14.614362429642055
-18.340092519385212	-15.248354486520833
9.0451603742481872	-26.737309828327078
22.261808584883269	-3.4763804995934944
-18.626109296126721	-17.871248808764967
6.6263523018564428	-3.5668288420159948
-8.1831686734374838	-11.143479301222367
1.0516061973350406	-10.378627431377868
-7.944366619255403	-11.455834915681935
-1.3619115677034388	28.928083361495016
1.1348592375505442	17.224348213786531
-8.5951684555861156	-1.3433125375773609
15.35497356399131	10.5525583282661
2.0528879532528781	5.1806816282749466
9.6097036007795698	10.065676016448778
13.13264101473103	-3.2123270213969275
-6.4675063930597618	1.6824588593875101
3.8089382576681623	-18.473348416344951
11.500104247125559	-14.554763801346018
-6.4248111735651579	-21.281409543815613
3.8119565589204836	-18.533106088379736
5.9503216311311711	8.1944149068739609
-22.245045833812448	-5.4869183877069316
5.3199705595172091	1.8585875274114796
-4.1339663065480261	-23.315950271292639
3.7724733001194526	-18.388435260632033
-7.2576995471013248	-11.512703295738099
23.171547183061353	-6.7533585729167145
-4.4790830455700368	-24.007554635986128
-9.4982328997127148	12.55723132232189
-5.4120395668960333	17.248481529639683
6.300659367434541	-4.5489101359534896
-23.238529193299282	-6.0005525505165203
9.3589266667751652	-26.896579619123482
-10.137547634424177	13.461617893491912
-5.7317835865307289	17.750930320749895
4.960955748965918	-24.082830077533078
-6.032758451321115	-25.827502167612941
-1.0204792657885424	1.6495063491818416
-8.1967956832984328	1.3833897614027226
-25.40241571001765	6.8934734649652496
15.45347386226168	-1.4102284997234205
-1.2590996743219485	14.454683205643327
16.48015773720023	-5.8458006396652573
-9.403620942437831	-1.2221038817746785
23.164240217895166	-8.1966379224678239
-1.0838513597735306	29.271652224327294
1.5168080367794865	9.8397713081190918
1.1241316830711221	33.183721932829528
-2.5223488827400709	2.4465209523432172
-7.2027230208570536	4.6169927593187623
-25.751288510649871	5.8236857601046346
-17.411170970896666	-10.559806053646499
22.824855518107274	-3.6988746737108964
20.390832914044399	-7.583000341350786
5.6280618946823502	0.15425090128171282
-0.59882815509256992	28.861969489427029
-8.8327428574142264	2.2912907718023465
0.97177618848160008	-10.009687123588552
3.664115842386912	-18.756198700979599
-3.0381619804057669	13.397316700540992
17.359902323722864	19.978732667487677
5.5252500832593743	1.0208868221184884
-0.99559047143627577	26.269968555913579
4.8792178644370674	1.076245347280802
4.4814021584701944	-1.0396924861038588
0.7448591005679337	16.185038688800269
-5.1464407712845874	17.850025105211461
17.847396391364907	-5.8324806883235372
-2.5410887100893458	30.165778502254927
5.1998939829733271	-1.8078853736262444
5.3994008198314116	-24.087633588549416
-7.6079147605496873	2.7100249880361216
15.033383701027834	7.7471926447414443
0.90573183722328554	-12.501659053510416
0.082499550304805561	29.992021685307407
16.75175937831925	19.857485114950652
16.828495527676147	9.7011652356967844
-1.9264367329801759	-11.37064781776969
2.1198974001915443	9.3654354064626268
0.94856110278729422	-12.42199616264411
17.442479474317835	-5.732041406630751
24.860955102297737	-3.4517235986441146
9.9009608033254981	-3.4654314109191087
-5.2087347352448647	-23.906331488635374
-17.548804040064407	-17.689900056958685
-4.0991101961415861	-13.123186187241709
-0.081674671267494503	33.369784126343667
-22.238395616016405	-5.9200732204441051
2.1419300664222876	-9.546368258652393
1.1244581069937878	33.175202374108544
-6.8688222079937882	11.765018494381694
-18.610537013390694	-17.319779153231561
17.276066746436484	19.057862595525517
0.11535939746595192	30.066396547161474
-4.3689576258301841	-23.911659169588717
-20.073267598613025	-17.695889980430199
5.4088048662255446	-24.764904802565386
-8.0522458725281698	13.562028470568656
-2.0921079226706798	-11.197883393603279
-15.334516395332065	5.9102768397903596
0.42149694677491428	29.922618477611994
16.181286035193139	9.4314160980004207
-23.190421286370484	-5.4386078400972906
-19.953734661071561	-16.372279714796878
-4.7829143338875317	-12.696424746065153
-2.153259496113261	-10.410011928566075
-20.183542770441537	-16.280743543732711
16.520751925062335	-6.6064464091051587
15.174923615736454	-18.932711897131007
-23.038980304161818	-6.3280763782316827
2.1026292058223404	3.7213296247512799
7.5206269691519543	15.330992893442577
-7.8183542319952002	-0.47418317108856711
-0.80221968946364353	-13.363725519916253
-24.67932483655142	4.9985293012726864
8.1996671067296347	5.638567193548937
26.969857372007287	-5.2091066516260502
-1.9460308729280749	15.065393803830077
-23.523505767560085	3.7570291074496112
14.130506255927166	-3.0196399672761798
5.0948405515149791	-0.43121749754756444
-5.0315899778470108	-23.61481972455309
-17.361376464468623	-12.429453376089668
15.753502070710679	19.311840321404823
-1.7396479548920083	30.267712102529774
-7.3124714315445098	3.2775826940321418
25.442497584551113	-6.5475624947373117
-17.903957503408886	10.175810318644016
-7.5560452624699304	-21.395001700267166
9.5700916617816318	-14.120671457782995
-0.92050111614752328	28.840541850131871
-8.5931597562548472	0.24922405443064233
9.4092041611194688	4.1281232940542107
1.3634875474124994	-12.719381390278894
-10.154047494304077	14.580464427352426
-8.1789179461664379	-11.238186210957254
-17.393150876290942	-17.575359281182493
-1.3664139283546446	28.921208020166237
-8.1865344969452707	1.3517798679594706
10.673184002935036	-14.021235453889739
25.905574758685976	-4.0395319236021869
-8.4686670640078638	0.53390090239243282
1.4959591365758007	9.8411239277574012
-0.87133829002711261	-13.068117881586705
-23.056267968808591	-5.38786836091281
7.8446955805557499	15.535963574555261
1.0311904201167288	-9.4219167207214749
17.666876205623414	-6.2990496218954872
0.6391203260689643	32.406028962403738
5.3606953749774116	-1.4409430530843013
-19.52500712070432	-10.48193126526316
0.81894545627710347	-10.269419071836325
0.63109496222298145	33.190143063032572
6.3283792806700108	-24.216289735987655
2.6286939860682357	-12.654931947831441
4.2888965595277595	0.9558244392266344
-8.0850645341566807	2.4842093930895675
-1.4031104472003568	30.986576042646455
-0.53720026441168722	16.564267386114256
-6.1561717553789261	-23.657695550708109
-4.6749654285337892	-12.850787889866922
7.8139767103525326	15.930708510619441
14.815426169195604	-18.44226295388285
8.6841817826328302	16.019887204368064
-25.370250284133206	6.8871569832987847
12.289229462577653	17.430583934331136
-7.1739701605202626	4.7228930739170139
-1.2164525653845724	5.5586377024651021
1.0206162024715815	-12.415699195365272
-22.830533405605596	-5.5894043290970226
15.365231730607471	-19.19469642644437
-6.1640327555042118	11.403163265009125
-5.921856303558144	11.646845069186009
-4.905769381937664	17.438985417324485
-5.960431572403774	-12.049042932524015
-7.6676898175917181	1.4081382593714904
-17.278479675590646	9.1213859265122839
-17.247087809992035	11.232576431106697
0.22849893205426625	30.493571743241308
2.4679324789441246	-23.056299656273051
14.755614312988227	18.92115864835268
23.358116417451086	-6.6981683803814924
-0.042601217974425586	-10.323142360189891
8.4706019974686679	5.3595157401269358
1.531225492637698	29.673811590522394
21.71936604908365	-4.9461460250330633
10.714662853468985	-14.025790863703858
-17.413522329514908	-17.67556699862746
3.1991362472361637	-0.28957679655193347
4.5045131001752203	-1.0451067627415636
9.9108231237880293	-13.913242026331099
25.589036975904587	-7.1352848128852537
-5.0130618018900686	-23.612433168299347
16.56589903513483	6.9189779975126857
7.5213246658130712	6.868700753682452
-9.0000074655625184	-1.3716635001570885
-26.328987094226559	6.3601667507166448
-4.9576929793027658	-13.618921147048166
-10.50461458436364	4.2031463799455517
22.981376124513648	-4.2783106835556497
-1.8998437271857758	-11.316422106713185
1.2397476866056698	30.815764180818618
15.491532269402839	-19.369135595637832
0.90356079192147776	-12.504520919621525
9.2217313077107068	4.0013550794577446
-5.2909143275291814	17.737262467182664
-3.1971885905585418	12.928156865114236
10.740604993737826	0.87449317780508051
-17.739288403523005	-17.995871716487926
-4.0622428222080531	-22.870333706981945
-18.703379780871266	8.7468173013505357
-8.8877965670186665	-0.74043617763784808
7.5002406577321148	10.364206053307685
2.7620916340870969	-0.25977166112197303
3.2621600851856023	20.922788357781481
14.839589168148212	-18.476393677352128
-18.517760440213411	8.8525112675295876
-25.892453419993146	5.7366583730770397
14.492519032461775	-17.957833675003698
-5.7289978337537688	11.721659557825197
-18.512487092082566	-16.995288808309589
0.18385776220511502	30.486254355230674
21.938604769301058	-7.9793190675526358
18.546425710812148	-3.0024708218410381
23.247912687812523	-6.0191058028658802
-22.729640062692013	-5.2332635230634814
-7.4601552651068728	13.395808660658698
-7.3480743531374646	-24.97405057852755
-18.641498382402741	-17.724275383497197
15.004554553609161	19.048531079102801
-16.607015387641521	7.7261171856445747
16.732089820953103	10.668996098599063
-20.166194087660124	-16.270076760938835
-23.715010328434566	-5.031536079399114
-5.7941748184121975	-23.447593354069973
-22.397319412509798	-6.7308275336655257
15.491358471356733	-19.371923325071783
-0.60708144922697882	6.9467864891256514
2.1060125664315077	9.3557127390519543
-17.751541782333433	-17.12376787294572
-3.0670902197165288	-22.654171286529692
-9.001967408418464	-1.3701940755423838
10.107109219674534	15.435107810966347
-10.25348560177498	13.517647458437274
-10.369366579568124	-2.1260122467031324
17.209806302746824	5.2839231035602463
23.335466519206026	-8.4859197256596719
-4.2704906561956282	12.83834492031851
-25.313090308436919	6.8498716701111171
-17.98408923402371	-17.158099352160662
3.2641839095860532	20.954058210018481
20.338624260286803	-7.5317715450275768
-2.5609262932969523	12.612887816048238
13.527174426874286	-2.0703391152904143
-0.34414993774015523	14.072035986268835
9.4091487249480465	10.495331863847301
-20.469636211028469	-5.0451654135068225
19.261670944693499	-1.3978497264459355
8.1197152590194115	-25.629319599773883
-22.742977212749043	3.8370081610379447
14.800365725663671	-18.42518352788867
17.725139606903952	7.0161101563539763
-7.0044734640415705	-11.525041402053159
15.454894321290176	10.650889095296414
21.81826817318338	-2.587165098413085
-0.53663698929646086	8.8523612652628252
-1.5466492778310403	31.118318385128326
10.822126960705921	-2.037595016823385
11.134683498164495	-2.0406223106913108
-6.2115491705849131	17.681358686493013
-22.43361175319572	-5.1114341765109241
-16.554389983373603	6.4336183468482258
-4.8918996138188415	17.825834520213316
-20.825847966126563	-19.149172024814465
0.68683740695965456	-8.6011655674798408
14.169905572540165	-2.1811171770246842
7.6798072928894427	-5.1968717557381501
-5.4473425742598414	-12.906112304977205
-19.668836666181072	-20.292597017704956
-23.134002749098396	-5.7224534719929245
-7.3071797399216631	-11.473176817768039
-22.615388402936354	-5.9033851330343898
-7.2773099413191291	3.9199935663856946
-1.7697899049000072	-10.735137257748079
26.132193051787265	-3.8104250558340191
-22.225821664798374	-6.6915863929225887
-17.75685431401093	-17.140797151245032
-1.4979119000794319	31.179016019637523
-3.2591098937999403	12.850053716265704
-3.1974515892290509	12.945712431403885
25.617508378878775	-6.4649096239111987
15.436288384284348	10.529210946763472
-5.5794306190865717	17.230956995103845
-1.2262191429762301	1.0960934654995997
-7.4321518427686906	-10.999094631625653
-4.8313250568471426	17.420553686596655
-0.83711498606579904	-13.595347246961406
-8.3277107975960352	0.90219219238048265
0.37035864106151389	29.785404916974453
-6.3661666301137094	17.618014645865525
-5.3102960592957782	15.641903090161438
4.0283007099402512	-20.366160938276227
-16.251518290955854	6.2028561557897994
-10.58776012243184	-1.9660801322731245
22.825060352196438	-3.7360856524415702
-1.0722318402853215	16.422438992087553
5.9808130154776942	-1.0305382198312998
20.319658579207267	-4.5341269640600812
25.397256750733366	-6.2503138995681784
-5.8210749920357365	17.365169991240069
25.360830060750153	-5.1483993274871205
-1.5756578604695455	-10.762561136480301
-23.13734515643716	-5.1703227236251301
-22.735171165280949	4.0934076195194669
2.8006298135678955	-23.011033516817793
27.374230555411639	-3.9932467469295978
-4.0130393911102535	-13.694907357659247
16.679709467782601	-6.6785895330067993
-17.799585583073281	-19.897390535835509
4.9484261219313552	0.46431435049810249
-10.473585312528861	13.848597386096182
22.319444657047459	-3.9349970363297824
-6.1635988807085829	1.8742596316476181
-15.811223888008222	-5.0162957273641471
8.8390244587742526	-25.720497212185748
-6.006740944292738	-0.13617124761149868
21.525092687838494	-5.2249933146968095
-17.125918115192501	8.348408354110342
-4.9097945041580697	-25.01482345038368
2.4350238001848883	-23.059467257346434
-17.221874002054015	11.382744572665453
5.5113406183940636	1.6334560749802376
-18.529641927871911	-17.290435192787381
-26.749570766050326	7.5151705083245428
3.4917251032947663	15.347167504711088
6.3543892082213906	-24.278879480908088
-1.5958629341585271	14.703386117700072
-7.2349286085111286	4.4754814206330167
23.425570572596786	-6.711904698514144
6.327813299909768	-24.232066669246098
11.480720896571688	-5.9488692014982032
23.333814861419931	-8.7406595417999622
-7.1466681872941349	5.3163027246094865
3.2397123563755188	20.972564001149301
-5.920282310486999	-25.582124895848278
-5.9569817858506298	16.691374609750483
3.8147647471246966	-18.425270578401879
12.645146916330502	-4.2506733163993733
-17.608732766194212	8.1577522262630247
7.8689893355883358	16.003814000731605
9.6849495762211628	-14.169504322630356
9.6390312087094863	-14.143426497996709
-22.758519169146979	-5.338344900833194
-0.024544859344662353	30.03470520681223
-7.525892619721259	-11.040661348468655
2.5552296683770281	3.8292258426255379
2.3692702288915997	-23.040734331057951
5.7135562726333911	-24.572594273437641
-2.1518180958719868	-11.268093507239538
15.134030288341258	2.0100366310035933
-16.342814520571842	-4.5391088120903484
15.464538612455852	-1.4264653820679689
6.144789175620998	7.1578919843870841
15.455393509659077	-1.4226704240471477
-0.73873971241501213	7.4063698523903883
-26.823637244730961	7.765508141380197
14.638042780499394	-18.171921370397516
-1.3704575631249125	1.6215058233404853
3.5862390610350614	-18.70021057019115
15.358083630346282	-19.190283883406114
25.54208247712566	-4.0422202226125323
8.5668902870731998	-24.8682212497508
-25.387023124015158	6.8718127039669534
-10.436201391000607	13.84057129633806
-5.4379707385142053	18.210650233233725
-10.935972867713275	5.1922374466314114
0.97663268267063486	-10.274899292412059
16.884750869377427	19.571533582662788
9.7017898227569734	-14.162083417992182
15.458113681509353	-1.4179831131637379
-18.218389584123909	-11.732519896825847
7.4728598335990899	5.1305779596755769
8.7516824413467678	9.9147504256705687
-7.2910179770531824	4.3493110391570253
10.547244213036274	-14.253447384627096
8.0268943592608384	-5.5291976525959097
-18.494161444052889	-14.530522467955969
3.7650706648049614	-1.0842233492019837
-16.543717382882654	7.8997462970381589
9.3076651052154471	-26.3433896204027
5.6804576357696641	-24.646533734769779
10.536811608669307	-14.222417993621699
-26.362161055547052	7.5814891912314897
-19.289292440708255	-10.151639211491583
-5.8325970073841864	-25.515553552913008
-17.078975100395144	8.3266818406131797
-0.48886042269186564	1.8745621887936756
22.912102892639901	-4.1915470007714797
-11.772114877263832	4.9232718352874061
16.108004510807067	10.406151125437487
7.3884217922909565	15.398437222462869
8.5723669584392468	15.711437799932034
3.5520358498717419	1.3616346332097675
4.5443919103661781	1.6592742043588917
-2.9000327433652267	2.4077987446184763
-5.9304890797057217	-11.573063610450566
-2.1739985047032966	-10.631460996126771
-17.248373363255798	11.138361385351191
22.866718816712254	-3.7052326080354385
-7.5222959757762906	-10.915985761160902
5.5783277425361746	1.0076049926964274
7.7421793560165506	-5.2897265916607914
-18.590412374061199	-17.834958936022101
-17.211769213307313	11.394954024817729
22.722626693591522	-4.2708339886833286
4.1996505977608711	0.92426319155171288
-4.0530877818065738	-23.148146159298182
22.868027948144078	-3.7055402270846547
-7.2797449095039264	3.9196300069591516
-20.619504917866365	-18.112232111276317
12.368215252653199	17.502447843150517
-12.311557032038419	5.1911040176166487
8.0525952606116071	-25.321886654012726
-7.1097220680478586	6.804320362494896
4.5398734275358192	1.2334952085733382
-4.6991010249833787	-24.923766915536408
23.374805267883328	-6.3828504601673721
23.14538837713042	-6.7014670249344332
9.5681162964435309	14.947081729973517
-19.291044943044575	-19.622480588906129
1.2124825307902094	8.9058179490618201
-21.665209792859912	-4.0892623816027021
-22.324801434380316	-5.9985378711738386
4.1704874648287662	1.5841634869486405
8.1632358312226803	15.264588800180002
11.501032286916919	-14.63002582921156
13.69724211216386	18.360569408318494
-17.88772756061115	-18.108694290473753
8.6574603199817037	-25.211057675110574
17.070039922186051	7.3510867971867615
11.478563355675419	-5.8790345765955827
5.1581036906264481	1.9320229919782568
11.495637040652019	-5.9010859686895181
-16.593577981302317	7.7785355609066329
16.907286365920609	20.005886571136529
7.9710682484595869	16.236469063703545
0.69960864494663189	33.114252133130364
-7.7794633722790847	-10.409357455060974
-16.404007483154967	7.3407067900351812
0.53631706117246947	-6.7063627484560815
-16.026865917130131	-6.3743860606650067
10.594706749169228	-14.126666198781681
-7.5733107487516085	-11.049787277881951
7.2839909859279635	10.289417395657162
21.666445415983276	-5.5515920849236569
15.106640535979626	3.9224802578806663
17.400289131839042	11.232255064270113
4.8491227898249143	-24.424188276379653
-19.734133594796287	-15.455488630792539
5.6499304748423551	-24.60635642828365
7.9693608449030799	15.079331998537127
-9.4347410455480727	-1.6358879047118557
-15.569799488415093	-15.020659569475651
-5.3816488066187773	17.19707140567213
27.253792428718747	-3.5018020427699961
17.187751643004841	6.8237822751974111
6.9954153898224769	-4.9145354681543649
2.7912913274577127	-22.807317043276825
-11.799694989467394	5.1155973805617556
8.1742700494510903	4.9332812861924911
-2.5406558118128775	30.141342723488254
0.98893601612768434	-12.387277700435474
-8.8417449732566027	2.3624620965476599
1.4386203346028112	-12.863538606649222
-7.1118505211873426	-11.553036537774798
0.94909370664783121	-11.635095957815075
17.117939627193298	20.611341651927759
11.478749347037221	-4.9954374320242163
17.286985840288558	19.207974289980704
-10.460439000087028	13.358765294686734
11.163326017358159	-14.708183189527691
-5.2182796620167871	15.897137552598279
-17.90777602579308	-17.180407571119297
-2.5281594843172845	12.664271221699657
-2.4875571335728157	-22.584140992296387
-8.7788602348124201	2.089893313955749
15.276879558427295	-2.1276547045631884
-4.2294115338030291	-23.383987984938397
-19.996062865437931	-17.08741413859331
23.547472880598836	-6.7217654133867022
-10.083624143888882	14.6775236086256
15.455038974145412	9.7619718873399854
-18.678443870864513	10.153658272214972
-6.3684263544836917	16.912186622063462
-8.2486659413686922	13.467457945840739
-7.2791195725483222	4.3812228546516261
1.2189021088227503	30.939417121618185
-5.5432766371897753	13.963994630438782
4.4290802650103771	-1.0557223947560523
-3.1028990393678044	13.943359674055925
2.4559624608594017	-22.99575690741419
20.157045726971962	-3.9188716100023955
-25.826309833558302	5.6991863433872947
-0.34137487025607322	-5.409866524528292
12.451069465896399	-0.18983398832683496
-6.8289136405057036	-10.701460682186321
-3.2705421075993395	1.3074877200444981
-4.1848332579009808	-12.306690826172458
-10.448389029122675	13.843215067038535
-4.2860531704572171	-23.397901110075157
-22.137665918573504	-5.2566913546553282
-2.2564999921787061	-11.392261467109131
21.297211675126803	-5.2206236276662414
-5.4052132821356098	17.826734550383009
-22.137626294705463	3.1593416814300421
-18.310541162819501	-16.908779056927848
3.4725463878062048	20.968131009943995
3.8163968650977074	-18.499465706591948
-2.0825556880941356	32.530987332090994
-6.219900834106971	17.68470668153574
-1.7612186011604294	26.109441673783429
-6.0000922553291964	-11.540243858335568
-17.507842065410262	-17.841244729047787
-0.76556014609475598	28.803463541695379
20.233236482866868	-4.7021813719908048
7.6274182483105522	15.749225205845903
22.804653649143066	-3.9087592946337373
1.4808686905824586	9.8766973033620591
21.927472815219819	-5.2042258239819912
-22.779068925045479	-4.7069588412532468
-19.978783978294832	-16.425144488132329
-2.0436228648354051	32.537617102111341
-22.192299348180796	-5.4439687622383044
-7.5951677880183519	-24.776091226423695
4.6510421423969088	15.372228208189249
-6.0179405553937579	-25.920742276501972
-0.75313480566084567	29.320703704352489
1.2254811721672323	5.7931064190008961
-10.411760450380179	13.541093260171053
-9.2719609409399659	-1.0104302849857107
17.958822368981458	21.213904038617247
-16.931865307757093	8.1485989538303958
2.3297066402292126	-9.4681723701811134
6.350350425034442	-24.103029263706006
-0.92238018252406395	-13.22657380312598
-16.040327817150164	7.2472203415161056
-8.7604229938282785	-0.56103918677664666
8.2510270175701059	16.032088176532778
21.527152517688151	-5.2215464965074725
17.409436957794586	20.193702181823749
6.9089077343875731	4.7312731517987396
-8.0280563533143319	-23.879221657662249
3.4055487413750458	-18.75599827193701
-7.5993308648110842	-11.03219195638207
-1.6862504079274412	-10.642989977963216
23.504621875510939	-6.6036520177638662
18.443759737341768	-3.0589521958038914
5.588181369111588	-24.627747495680264
10.82257502505508	-14.767903358318616
22.329220780987654	-3.9535449899897657
-9.624208091907132	12.840538681692303
10.044169612755427	16.783291431603455
1.4957079000411191	10.019411101497425
6.2325449665830925	15.812584920780546
-17.00140896785766	9.5612898766484982
-2.1827011241519889	12.718800521416792
10.549677661582248	17.017687242598079
3.5909283052280929	-18.7381061206532
27.662217132437679	-4.6115216667093843
-15.178801019868304	-14.634594814109299
3.4016992487006257	16.451912925882542
8.1595837473444153	16.114227618206577
7.9384356752333636	-5.5544950677248384
8.2153965977660395	15.406656192909779
-18.556597151078005	7.5167814917121598
-1.090468042838163	28.941394645445563
2.9378997131837283	11.973191913055169
-5.1823738406459849	15.90823650371814
-20.69656046476031	-19.77727447174782
-5.5359601938767176	-24.109889403757201
9.3225503986010576	-26.945203077295286
15.618550665510291	19.368444294350592
-8.6861077394349895	0.18983162106141557
-8.2164281678733868	3.3175146424497495
-7.9861130779619627	13.410016220014361
8.4125835990123559	15.49055031345484
26.088494913902007	-2.4594636673643424
8.9119071778413108	-25.523005279970874
-5.0878337179643376	-23.773458561192371
-9.9104244718376435	13.673849156192698
-8.0774150155644016	2.5803389900750657
15.834026348055653	19.504575662187715
-23.229763147548713	-5.5463050767437201
8.7458759723753445	-26.132259533951899
8.5408291140417791	15.294635139187596
7.5236791860610364	15.269438736620714
-19.064071840674465	-19.824536781653325
15.495238449740716	-0.25433889286937961
20.392228398394618	-7.583491592441379
8.9651397062200751	9.1987315292488958
-1.5050173414527475	31.134852703585008
7.3512420062893664	6.0385504329751898
3.4379823212128433	14.22699012295223
-6.0505568770452687	-25.872733148726848
4.2914374034141085	0.95483917899502779
-9.4205013271593483	-2.2337721989022703
0.9446260006836531	-12.36393753854834
8.6504615463665946	-26.225612535384375
9.205958852044656	16.06283062733927
8.6678081562686895	-25.217590483281828
-17.695779380444453	-17.938166547963604
-9.4290398445105232	-1.6513311322300466
14.809737233944862	-18.43480194864156
9.7021966588597657	-14.162012220846556
24.683069101175843	-6.7870693700310261
-7.0510094409608142	11.715509200720742
-10.690708522494681	-1.9406045701325987
23.159187800940398	-6.7900659165851716
-1.1691516643628264	29.088885060915501
-0.67404445166037352	28.956508420367868
-10.671245903476658	13.902390152069303
-20.052040820684486	-16.463553670562419
-21.015805914923682	-5.0890091924972385
14.565734359201864	-3.586293212664811
8.3553892820858735	15.535119726356244
16.871601250698792	20.307365114102424
-22.850557557253939	-5.9304049645694086
2.1964434150245804	20.962763974817403
-1.9044985019239618	-11.458131285480627
-1.0380087550999979	29.313463197040214
-25.988127591022995	5.837503360163673
-5.8635421493355429	16.730843411141862
-5.0835075918804122	16.821671636374141
-2.9003412972799976	2.4314578813849996
-7.1891003032115384	4.6694678834496566
0.81829420908379047	-10.2663474148173
8.1490337955723895	-26.852007492553877
15.392019058362115	-1.4431876786729254
-1.3285376523788435	26.283653423780951
22.439769766548817	-3.985758963910933
-17.828009961179013	-17.196812254492016
7.1994301701463677	16.092231664883393
9.5693544741911065	-14.124236282631829
6.6108570997534217	6.1440482478630791
8.0700523403032616	17.168870158398505
5.553107540424838	1.4755238374885933
10.542970614297444	-14.68807725474476
-17.242845379593657	-4.2423650016828391
-17.228257508911422	11.314735037894511
7.4916800931889762	16.314140450459597
-5.4352541018698917	-11.943333029287377
27.601004940508641	-4.6517218929947743
4.53175390764196	1.7900216894981136
9.7527269963247409	9.4635591833085293
12.910431803881169	-1.8979761711776053
17.47888963843635	20.194963596500017
11.446416628973211	-5.9328390165998801
-17.943054079871665	-18.23231402062525
26.452512896719998	-4.7165052089961526
15.609689656301269	19.212977754973508
-22.65315221403656	-4.8847336661311207
17.017418456272736	10.738951806363554
-7.7333690075264725	-24.737730112172141
14.575355003082167	-4.3387487179400894
15.404995218141075	-1.4283663227495431
-15.45770176518087	-14.718905833684387
-8.5671088715140247	3.2907617137690974
-26.747641069940613	7.5695281052162375
7.6252939796705119	-26.220092128248094
11.444475531844017	-5.9483635939778816
16.768004543519858	10.143890982081894
5.7733724334786327	0.099392554109990303
22.264597612544307	-3.4801714276644877
16.308991622342404	6.7499543110004439
-9.2634935391332895	-2.2027762340067665
-6.2963217465191974	10.825289531741886
-3.6376804444315396	-22.705822528840269
28.312980983706822	-4.0539313394809824
2.1025111166267787	9.3787564029288557
-1.4028836020379674	31.170844232292826
-9.6463413665695512	-1.2085549237292093
-0.8569383618608728	-13.21565336115918
16.212777029201149	20.09265810623253
15.106445764818954	19.068367980591653
-10.264884609004152	13.54963529461812
-25.704114963618519	5.7516620121899091
-26.645269854815876	7.5459907561964004
18.448205700170398	19.90636686516395
-1.5559229453532375	31.151904317228201
12.346749193038214	-14.787394568041648
1.4710355209553501	9.8567160475533289
9.0503342032276066	3.4311245120725271
-1.9881507982273872	-10.512251355736174
22.543979222196658	-4.2956647332191586
-0.61274490178147811	33.367621595909341
9.0212095104870915	-25.808163724735099
-8.0353435797963897	-0.71448115167258952
17.245537681648571	20.07694160371339
-11.30100791288233	13.792686828696974
15.18330735464068	3.1981397939303102
-10.251963357858603	14.679982760522449
-5.9606454198249468	-11.587730786297191
8.693794684495014	-26.178543983848925
16.49908868009188	18.581055197317358
17.334858148241974	19.930794826707238
-5.1806269832193763	-23.930717273170391
-5.932256466853449	-11.569594926877205
0.12512918203878279	30.51220547480645
-6.4246190056558126	-25.370103057541741
10.906784981797228	-14.702578778863023
10.840311529476462	0.58599386136834597
8.5549871722065038	-26.854797682125945
21.92628238527821	-5.2042054994390092
-17.275211488289354	10.847287892681322
4.6373381660840689	1.1119211317754265
11.287634167687914	-14.349146975675028
15.130273352917145	2.1650029405690097
11.468097432634782	-5.8869029890557387
-27.033641344455454	6.8988664585129333
-4.7214753813017349	16.711110046953273
-18.259779389533175	-15.300251357873108
-15.335818812224208	6.3068187855531761
-0.32182365044183436	-6.6444226608279919
-8.1696146451061384	-11.226587452986768
-15.953901772347669	7.4273980417184564
15.450598126805289	-1.4357215990735415
0.54483212620793453	16.114806675078587
-8.9596207802916652	-0.63732939628832075
4.6547739184791332	0.48804011562776362
-15.89707632122399	6.6967171925749458
6.3611658371497777	6.8811079850393586
3.6270626570325977	-18.69936088597742
1.2910047614037394	-10.040005201031718
3.360894576383946	15.265670360506512
1.0622139314508852	-10.370428694185261
16.522052771287346	19.641065600399212
-6.728509961894539	18.105108323466837
-11.741021896018333	5.1276128937992143
8.8866374258157048	16.630519881007022
-7.5378491182244733	-10.799398128084771
-7.9156882991916664	-23.719384998006685
11.436361702133148	-6.6771254210139048
-25.9879041123448	5.8457154289243247
1.4895095844413884	9.8990920652877961
-1.1774670338262125	-10.945340305585692
-20.216242680827285	-16.255467388571418
8.4424657091728932	-25.411990731924494
-16.410183553731422	7.3501033997006866
-5.363990088962816	-22.697573053520781
-17.78529104513332	-18.043482747622178
16.260450609232183	9.8998695180733787
8.6375704462993532	-26.278113760601503
-15.155053398563952	5.6475949420928515
10.41266207727346	1.144135870924142
16.464617674969197	6.5593114028738686
-9.2264617066157442	-1.0269823416448307
1.6059015012698219	31.982309785997284
17.710851921056552	-6.0410460730561644
-6.4162378133701417	-11.183894433727703
8.8296743135650662	10.266215350761016
1.6285191091616007	9.0970138191572936
-8.7252531267804176	-10.58492134999598
-26.473700529273088	7.6751630265788124
0.91955369370583173	28.036201172202563
-18.639154410565745	-17.733344419414234
-1.1170227559088655	29.241348156099519
-15.872653576151249	-5.1289399926442023
-20.031178464169066	-16.483363524968141
-4.066812097053166	-23.092293635894713
11.494722810854514	-14.479386513464995
-7.2634401847001415	3.8060531689137616
-19.450466631014969	-20.313347434553947
-6.4204370173245815	17.008269908272425
21.306716678286545	-5.2317605908264779
15.420639556005927	-19.270697484819173
1.7325600165842643	30.621703615626018
